﻿{
  "spider": "http://itvbox.cc/sft/jar/fm.jar;md5;602fb3226d777850053484cdeb2f3296",
  "warningText": "接口由公众号【云星日记】免费提供",
  "wallpaper": "http://maoyingshi.cc/api.php",
  "sites": [
    {
      "key": "js豆瓣",
      "name": "🐼豆瓣推荐",
      "type": 3,
      "api": "http://calmwy.cn/lib/drpy2.min.js",
      "ext": "http://calmwy.cn/js/drpy.js"
    },
    {
      "key": "南瓜",
      "name": "🎃南瓜App",
      "type": 3,
      "api": "csp_NanGua",
      "playerType": 2,
      "searchable": 1,
      "quickSearch": 1,
      "changeable": 1
    },
    {
      "key": "csp_Kunyu77",
      "name": "👒酷云七七",
      "type": 3,
      "api": "csp_Kunyu77",
      "playerType": 1,
      "searchable": 1,
      "quickSearch": 1,
      "jar": "https://gitee.com/wuyougouwu/tvsource/raw/master/jar/77.jar;md5;A0C72C940A5E8E19E425F437D48942F2",
      "filterable": 1
    },
    {
      "key": "直播转点播1",
      "name": "📡电视直播",
      "type": 3,
      "api": "http://itvbox.cc/tvbox/云星日记/sh/js/直播转点播.js",
      "ext": "http://itvbox.cc/tvbox/云星日记/sh/js/直播.txt"
    },
    {
      "key": "csp_XBPQ_vstv",
      "name": "🐲短剧",
      "type": 3,
      "api": "csp_XBPQ",
      "searchable": 1,
      "quickSearch": 1,
      "filterable": 1,
      "ext": {
        "分类url": "https://www.ytshengde.com/sanyisw/{cateId}-{area}-------{catePg}---{year}.html",
        "分类": "短剧$5",
        "免嗅": "0",
        "嗅探词": ".m3u8#m3u8"
      },
      "jar": "http://itvbox.cc/sft/jar/xbpq新版.jar"
    },
    {
      "key": "csp_beijihu",
      "name": "🎪极狐影视",
      "type": 3,
      "api": "csp_AppYsV2",
      "searchable": 1,
      "quickSearch": 1,
      "filterable": 1,
      "ext": "https://www.kuin.one/api.php/app/"
    },
    {
      "key": "csp_Nmys",
      "name": "🌾农民直连",
      "type": 3,
      "api": "csp_Nmys",
      "searchable": 1,
      "quickSearch": 1,
      "changeable": 1,
      "ext": "https://agit.ai/fantaiying/fty/raw/branch/master/ext/nmys.json"
    },
    {
      "key": "csp_XYQHiker_素白白影视",
      "name": "🌌素白白影视",
      "type": 3,
      "api": "csp_XYQHiker",
      "searchable": 1,
      "quickSearch": 1,
      "filterable": 1,
      "ext": "http://itvbox.cc/sft/Hk/XYQHiker/素白白影视.json",
      "jar": "https://d.kstore.space/download/5376/jar/Hk.jar"
    },
    {
      "key": "csp_XYQHiker_电影牛影院",
      "name": "🌌电影牛影院",
      "type": 3,
      "api": "csp_XYQHiker",
      "searchable": 1,
      "quickSearch": 1,
      "filterable": 1,
      "ext": "http://itvbox.cc/sft/Hk/XYQHiker/电影牛影院.json",
      "jar": "https://d.kstore.space/download/5376/jar/Hk.jar"
    },
    {
      "key": "csp_XYQHiker_榜一短剧",
      "name": "🌌榜一短剧",
      "type": 3,
      "api": "csp_XYQHiker",
      "searchable": 1,
      "quickSearch": 1,
      "filterable": 1,
      "ext": "http://itvbox.cc/sft/Hk/XYQHiker/榜一短剧.json",
      "jar": "https://d.kstore.space/download/5376/jar/Hk.jar"
    },
    {
      "key": "csp_XYQHiker_奈飞中文",
      "name": "🌌奈飞中文",
      "type": 3,
      "api": "csp_XYQHiker",
      "searchable": 1,
      "quickSearch": 1,
      "filterable": 1,
      "ext": "http://itvbox.cc/sft/Hk/XYQHiker/奈飞中文.json",
      "jar": "https://d.kstore.space/download/5376/jar/Hk.jar"
    },
    {
      "key": "csp_XYQHiker_速搜影院",
      "name": "🌌速搜影院",
      "type": 3,
      "api": "csp_XYQHiker",
      "searchable": 1,
      "quickSearch": 1,
      "filterable": 1,
      "ext": "http://itvbox.cc/sft/Hk/XYQHiker/速搜影院.json",
      "jar": "https://d.kstore.space/download/5376/jar/Hk.jar"
    },
    {
      "key": "csp_XYQHiker_短剧网",
      "name": "🌌短剧网",
      "type": 3,
      "api": "csp_XYQHiker",
      "searchable": 1,
      "quickSearch": 1,
      "filterable": 1,
      "ext": "http://itvbox.cc/sft/Hk/XYQHiker/短剧网.json",
      "jar": "https://d.kstore.space/download/5376/jar/Hk.jar"
    },
    {
      "key": "csp_Ikanbot",
      "name": "💋爱看Bot",
      "type": 3,
      "api": "csp_Ikanbot",
      "searchable": 1,
      "quickSearch": 1,
      "filterable": 1,
      "ext": "[排序:lz线路,kuaik]",
      "jar": "https://d.kstore.space/download/5376/jar/Hk.jar"
    },
    {
      "key": "毛驴",
      "name": "🍓毛驴直连",
      "type": 3,
      "api": "csp_MLYS",
      "searchable": 1,
      "quickSearch": 1,
      "changeable": 1,
      "ext": "https://www.maolvys.com/"
    },
    {
      "key": "csp_Lib",
      "name": "🌟Libvio",
      "type": 3,
      "api": "csp_Libvio",
      "searchable": 1,
      "quickSearch": 1,
      "filterable": 1,
      "ext": "https://www.libvio.pro/"
    },
    {
      "key": "虎牙",
      "name": "🐯虎牙采集",
      "type": 1,
      "api": "https://www.huyaapi.com/api.php/provide/vod/from/hym3u8",
      "searchable": 1,
      "quickSearch": 1,
      "categories": [
        "内地剧",
        "动作片",
        "科幻片",
        "战争片",
        "喜剧片",
        "爱情片",
        "恐怖片",
        "犯罪片",
        "剧情片",
        "冒险片",
        "记录片",
        "韩剧",
        "香港剧",
        "台湾剧",
        "欧美剧",
        "日剧",
        "马泰剧",
        "体育赛事",
        "综艺",
        "动画片",
        "中国动漫",
        "日本动漫",
        "欧美动漫"
      ]
    },
    {
      "key": "火狐",
      "name": "🦊茶杯狐",
      "type": 1,
      "api": "https://hhzyapi.com/api.php/provide/vod/",
      "searchable": 1,
      "quickSearch": 0,
      "filterable": 1,
      "categories": [
        "内地剧",
        "动作片",
        "科幻片",
        "战争片",
        "喜剧片",
        "爱情片",
        "恐怖片",
        "犯罪片",
        "剧情片",
        "冒险片",
        "记录片",
        "韩剧",
        "香港剧",
        "台湾剧",
        "欧美剧",
        "日剧",
        "马泰剧",
        "体育赛事",
        "综艺",
        "动画片",
        "中国动漫",
        "日本动漫",
        "欧美动漫"
      ]
    },
    {
      "key": "yqkan_open",
      "name": "🎉影视|一起看",
      "type": 3,
      "api": "csp_YQKan",
      "searchable": 1,
      "quickSearch": 1,
      "filterable": 0
    },
    {
      "key": "csp_Xinsj",
      "name": "🐼视觉直连",
      "type": 3,
      "api": "csp_Xinsj",
      "searchable": 1,
      "quickSearch": 1,
      "changeable": 1,
      "ext": "https://www.6080yy3.com/"
    },
    {
      "key": "csp_Cokemv",
      "name": "📕可乐直连",
      "type": 3,
      "api": "csp_Cokemv",
      "playerType": 2,
      "searchable": 1,
      "quickSearch": 1,
      "changeable": 1
    },
    {
      "key": "暴风采集",
      "name": "🌪️暴风影音",
      "type": 1,
      "api": "https://app.bfzyapi.com/api.php/provide/vod/",
      "playUrl": "",
      "categories": [
        "国产剧",
        "国产动漫",
        "动作片",
        "科幻片",
        "剧情片",
        "喜剧片",
        "爱情片",
        "恐怖片",
        "战争片",
        "香港剧",
        "台湾剧",
        "日本剧",
        "欧美剧",
        "泰国剧",
        "日本动漫",
        "综艺频道",
        "大陆综艺",
        "港台综艺",
        "日本综艺",
        "新马泰综艺",
        "纪录片"
      ]
    },
    {
      "key": "csp_DiDuan",
      "name": "⏮️低端影视",
      "type": 3,
      "api": "csp_Ddrk",
      "click": "ddys.tv;#vjsp > button",
      "searchable": 1,
      "quickSearch": 1,
      "filterable": 0
    },
    {
      "key": "索尼采集",
      "name": "🥤索尼影视",
      "type": 1,
      "api": "https://suoniapi.com/api.php/provide/vod/?ac=list",
      "playUrl": "",
      "searchable": 1,
      "quickSearch": 1,
      "filterable": 1,
      "categories": [
        "科幻片",
        "动作片",
        "恐怖片",
        "纪录片",
        "爱情片",
        "战争片",
        "剧情片",
        "喜剧片",
        "大陆剧",
        "港澳剧",
        "台湾剧",
        "欧美剧",
        "动漫电影",
        "韩剧",
        "日剧",
        "泰剧"
      ]
    },
    {
      "key": "在线之家",
      "name": "🎞在线之家",
      "type": 3,
      "api": "csp_Zxzj",
      "searchable": 1,
      "quickSearch": 1,
      "filterable": 1,
      "ext": "https://www.zxzjhd.com/"
    },
    {
      "key": "csp_SP360",
      "name": "💘360〔SP〕",
      "type": 3,
      "api": "csp_XBPQ",
      "searchable": 1,
      "quickSearch": 1,
      "filterable": 1,
      "ext": "http://我不是.肥猫.love:63/json/360影视.json"
    },
    {
      "key": "drpy_js_腾云驾雾",
      "name": "🐧腾讯视频",
      "type": 3,
      "api": "https://agit.ai/30215429/TVBox/raw/branch/master/JS/lib/drpy2.min.js",
      "ext": "https://agit.ai/30215429/TVBox/raw/branch/master/JS/js/腾云驾雾.js"
    },
    {
      "key": "drpy_js_百忙无果",
      "name": "🥭芒果视频",
      "type": 3,
      "api": "https://agit.ai/30215429/TVBox/raw/branch/master/JS/lib/drpy.min.js",
      "ext": "https://agit.ai/30215429/TVBox/raw/branch/master/JS/js/百忙无果.js"
    },
    {
      "key": "drpy_js_奇珍异兽",
      "name": "🥝爱奇艺视频",
      "type": 3,
      "api": "https://agit.ai/30215429/TVBox/raw/branch/master/JS/lib/drpy.min.js",
      "ext": "https://agit.ai/30215429/TVBox/raw/branch/master/JS/js/奇珍异兽.js"
    },
    {
      "key": "csp_Anime1",
      "name": "🐾日本动漫动漫",
      "type": 3,
      "api": "csp_Anime1",
      "searchable": 1,
      "quickSearch": 1,
      "filterable": 1
    },
    {
      "key": "csp_Ysj",
      "name": "🐲异界动漫",
      "type": 3,
      "api": "csp_Ysj",
      "searchable": 1,
      "quickSearch": 1,
      "filterable": 1
    },
    {
      "key": "Dm84",
      "name": " 🦸动漫巴士",
      "type": 3,
      "api": "csp_Dm84",
      "searchable": 1,
      "quickSearch": 1,
      "filterable": 1
    },
    {
      "key": "csp_Ying",
      "name": "🌸樱花动漫",
      "type": 3,
      "api": "csp_Ying",
      "searchable": 1,
      "quickSearch": 1,
      "filterable": 1
    },
    {
      "key": "csp_XPath_企鹅体育",
      "name": "🐧企鹅体育",
      "type": 3,
      "api": "csp_XPath",
      "searchable": 0,
      "quickSearch": 0,
      "filterable": 0,
      "ext": "http://我不是.肥猫.love:63/json/企鹅直播.json"
    },
    {
      "key": "csp_Kanqiu",
      "name": "⚽88看球",
      "type": 3,
      "api": "csp_Kanqiu",
      "searchable": 1,
      "quickSearch": 1,
      "filterable": 1,
      "changeable": 0
    },
    {
      "key": "csp_xp_qiumi",
      "name": "⚽ Jrs球迷",
      "type": 3,
      "api": "csp_XPath",
      "searchable": 0,
      "quickSearch": 0,
      "filterable": 0,
      "ext": "http://itvbox.cc/tvbox/云星日记/sh/Bilibili/dj看球.json"
    },
    {
      "key": "csp_Bili1",
      "name": "🅱️哔哩合集",
      "type": 3,
      "api": "csp_Bili",
      "searchable": 1,
      "quickSearch": 1,
      "filterable": 1,
      "ext": "http://itvbox.cc/tvbox/云星日记/sh/Bilibili/哔哩合集.json"
    },
    {
      "key": "软件",
      "name": " 🖤软件教程",
      "type": 3,
      "api": "csp_Bili",
      "searchable": 0,
      "quickSearch": 0,
      "filterable": 1,
      "ext": "http://itvbox.cc/tvbox/云星日记/sh/Bilibili/软件教程.json"
    },
    {
      "key": "歌舞",
      "name": "💃印度歌舞",
      "type": 3,
      "api": "csp_Bili",
      "searchable": 0,
      "quickSearch": 0,
      "filterable": 1,
      "ext": "http://itvbox.cc/tvbox/云星日记/sh/Bilibili/印度歌舞.json"
    },
    {
      "key": "小姐姐",
      "name": "💃哔哩小姐姐",
      "type": 3,
      "api": "csp_Bili",
      "searchable": 0,
      "quickSearch": 0,
      "filterable": 1,
      "ext": "http://itvbox.cc/tvbox/云星日记/sh/Bilibili/哔哩xjj.json"
    },
    {
      "key": "车模",
      "name": "💃哔哩车模",
      "type": 3,
      "api": "csp_Bili",
      "searchable": 0,
      "quickSearch": 0,
      "filterable": 1,
      "ext": "http://itvbox.cc/tvbox/云星日记/sh/Bilibili/哔哩车模.json"
    },
    {
      "key": "舞蹈",
      "name": "🎗️哔哩舞蹈",
      "type": 3,
      "api": "csp_Bili",
      "searchable": 0,
      "quickSearch": 0,
      "filterable": 1,
      "ext": "http://itvbox.cc/tvbox/云星日记/sh/Bilibili/哔哩舞蹈.json"
    },
    {
      "key": "演唱会自定义",
      "name": "🌈演唱会",
      "type": 3,
      "api": "csp_Bili",
      "searchable": 0,
      "quickSearch": 0,
      "filterable": 1,
      "ext": "http://itvbox.cc/tvbox/云星日记/sh/Bilibili/哔哩演唱会.json"
    },
    {
      "key": "MV",
      "name": "🌈哔哩MV",
      "type": 3,
      "api": "csp_Bili",
      "searchable": 0,
      "quickSearch": 0,
      "filterable": 1,
      "ext": "http://itvbox.cc/tvbox/云星日记/sh/Bilibili/哔哩MTV.json"
    },
    {
      "key": "戏曲自定义",
      "name": "📺哔哩戏曲",
      "type": 3,
      "api": "csp_Bili",
      "searchable": 0,
      "quickSearch": 0,
      "filterable": 1,
      "ext": "http://itvbox.cc/tvbox/云星日记/sh/Bilibili/哔哩戏曲.json"
    },
    {
      "key": "解说",
      "name": "⚽️电影解说",
      "type": 3,
      "api": "csp_Bili",
      "searchable": 0,
      "quickSearch": 0,
      "filterable": 1,
      "ext": "http://itvbox.cc/tvbox/云星日记/sh/Bilibili/哔哩影视解说.json"
    },
    {
      "key": "球类",
      "name": "⚽️球球合集",
      "type": 3,
      "api": "csp_Bili",
      "searchable": 0,
      "quickSearch": 0,
      "filterable": 1,
      "ext": "http://itvbox.cc/tvbox/云星日记/sh/Bilibili/哔哩球球.json"
    },
    {
      "key": "美食",
      "name": " 🧡美食合集",
      "type": 3,
      "api": "csp_Bili",
      "searchable": 0,
      "quickSearch": 0,
      "filterable": 1,
      "ext": "http://itvbox.cc/tvbox/云星日记/sh/Bilibili/哔哩美食.json"
    },
    {
      "key": "棋牌",
      "name": " 💔棋牌合集",
      "type": 3,
      "api": "csp_Bili",
      "searchable": 0,
      "quickSearch": 0,
      "filterable": 1,
      "ext": "http://itvbox.cc/tvbox/云星日记/sh/Bilibili/哔哩棋牌.json"
    },
    {
      "key": "UP主",
      "name": " 🖤UP主机",
      "type": 3,
      "api": "csp_Bili",
      "searchable": 0,
      "quickSearch": 0,
      "filterable": 1,
      "ext": "http://itvbox.cc/tvbox/云星日记/sh/Bilibili/哔哩UP主.json"
    },
    {
      "key": "PS",
      "name": "🎉PS教程",
      "type": 3,
      "api": "csp_Bili",
      "searchable": 0,
      "quickSearch": 0,
      "filterable": 1,
      "ext": "http://itvbox.cc/tvbox/云星日记/sh/Bilibili/哔哩PS.json"
    },
    {
      "key": "外语",
      "name": "🏠外语学堂",
      "type": 3,
      "api": "csp_Bili",
      "searchable": 0,
      "quickSearch": 0,
      "filterable": 1,
      "ext": "http://itvbox.cc/tvbox/云星日记/sh/Bilibili/哔哩外语.json"
    },
    {
      "key": "学堂",
      "name": "🍉学堂教育",
      "type": 3,
      "api": "csp_Bili",
      "searchable": 0,
      "quickSearch": 0,
      "filterable": 1,
      "ext": "http://itvbox.cc/tvbox/云星日记/sh/Bilibili/哔哩学堂.json"
    },
    {
      "key": "EXCEL",
      "name": "🏢Excel学堂",
      "type": 3,
      "api": "csp_Bili",
      "searchable": 0,
      "quickSearch": 0,
      "filterable": 1,
      "ext": "http://itvbox.cc/tvbox/云星日记/sh/Bilibili/哔哩Excel教程.json"
    },
    {
      "key": "足球",
      "name": "⚽️足球合集",
      "type": 3,
      "api": "csp_Bili",
      "searchable": 0,
      "quickSearch": 0,
      "filterable": 1,
      "ext": "http://itvbox.cc/tvbox/云星日记/sh/Bilibili/哔哩球星.json"
    },
    {
      "key": "体育",
      "name": "💋哔哩体育",
      "type": 3,
      "api": "csp_Bili",
      "searchable": 0,
      "quickSearch": 0,
      "filterable": 1,
      "ext": "http://itvbox.cc/tvbox/云星日记/sh/Bilibili/哔哩体育.json"
    },
    {
      "key": "dr_兔小贝",
      "name": "📚儿童启蒙",
      "type": 3,
      "api": "https://agit.ai/fantaiying/fty/raw/branch/master/JS/lib/drpy.min.js",
      "ext": "https://agit.ai/fantaiying/fty/raw/branch/master/JS/js/兔小贝.js",
      "searchable": 0,
      "quickSearch": 0,
      "filterable": 0
    },
    {
      "key": "少儿教育",
      "name": "📚少儿教育",
      "type": 3,
      "api": "csp_Bili",
      "searchable": 0,
      "quickSearch": 0,
      "filterable": 1,
      "ext": "http://itvbox.cc/tvbox/云星日记/sh/Bilibili/少儿┃教育.json"
    },
    {
      "key": "小学课堂",
      "name": "📚小学课堂",
      "type": 3,
      "api": "csp_Bili",
      "searchable": 0,
      "quickSearch": 0,
      "filterable": 1,
      "ext": "http://itvbox.cc/tvbox/云星日记/sh/Bilibili/小学┃课堂.json"
    },
    {
      "key": "初中课堂",
      "name": "📚初中课堂",
      "type": 3,
      "api": "csp_Bili",
      "searchable": 0,
      "quickSearch": 0,
      "filterable": 1,
      "ext": "http://itvbox.cc/tvbox/云星日记/sh/Bilibili/初中┃课堂.json"
    },
    {
      "key": "高中教育",
      "name": "📚高中课堂",
      "type": 3,
      "api": "csp_Bili",
      "searchable": 0,
      "quickSearch": 0,
      "filterable": 1,
      "ext": "http://itvbox.cc/tvbox/云星日记/sh/Bilibili/高中┃课堂.json"
    },
    {
      "key": "csp_KungFu404",
      "name": "🎦阿里设置",
      "type": 3,
      "api": "csp_KungFu404",
      "searchable": 1,
      "filterable": 0,
      "changeable": 0,
      "jar": "http://itvbox.cc/sft/jar/alisz.jar"
    },
    {
      "key": "csp_WoGG",
      "name": "🦊玩偶哥哥4K",
      "type": 3,
      "api": "csp_WoGG",
      "searchable": 1,
      "quickSearch": 1,
      "filterable": 1,
      "ext": "http://127.0.0.1:9978/file/TVBox/jar/alitoken.txt+4k|auto|fhd$$$https://wogg.xyz/$$$弹"
    },
    {
      "key": "UpYun",
      "name": "🦊Up搜搜索",
      "type": 3,
      "api": "csp_UpYun",
      "searchable": 1,
      "quickSearch": 1,
      "filterable": 0,
      "changeable": 0,
      "ext": "http://127.0.0.1:9978/file/TVBox/jar/alitoken.txt+4k|auto|fhd"
    },
    {
      "key": "七夜",
      "name": "🦊七夜搜索",
      "type": 3,
      "api": "csp_Dovx",
      "searchable": 1,
      "quickSearch": 1,
      "filterable": 0,
      "changeable": 0,
      "ext": "http://127.0.0.1:9978/file/TVBox/jar/alitoken.txt+4k|auto|fhd"
    },
    {
      "key": "Gitcafe",
      "name": "🦊小纸条(搜索)",
      "type": 3,
      "api": "csp_Gitcafe",
      "searchable": 1,
      "quickSearch": 1,
      "filterable": 1,
      "jar": "https://d.kstore.space/download/5376/jar/Hk.jar",
      "ext": "http://127.0.0.1:9978/file/TVBox/jar/alitoken.txt"
    },
    {
      "key": "csp_Zhaozy5",
      "name": "📀找资源(搜索)",
      "type": 3,
      "api": "csp_Zhaozy",
      "searchable": 1,
      "quickSearch": 1,
      "filterable": 0,
      "jar": "https://d.kstore.space/download/5376/jar/Hk.jar",
      "ext": "http://127.0.0.1:9978/file/TVBox/jar/alitoken.txt$$$yannanfei$$$abcdefg"
    },
    {
      "key": "csp_AliPS",
      "name": "📀喵狸盘搜(搜索)",
      "type": 3,
      "api": "csp_AliPS",
      "searchable": 1,
      "quickSearch": 1,
      "filterable": 0,
      "jar": "https://d.kstore.space/download/5376/jar/Hk.jar",
      "ext": "http://127.0.0.1:9978/file/TVBox/jar/alitoken.txt"
    },
    {
      "key": "csp_Yisou5",
      "name": "📀易搜(搜索)",
      "type": 3,
      "api": "csp_Yisou",
      "searchable": 1,
      "quickSearch": 1,
      "filterable": 0,
      "jar": "https://d.kstore.space/download/5376/jar/Hk.jar",
      "ext": "http://127.0.0.1:9978/file/TVBox/jar/alitoken.txt"
    },
    {
      "key": "push_agent",
      "name": "📀推送(阿里/磁力)",
      "type": 3,
      "api": "csp_PushAgent",
      "searchable": 1,
      "quickSearch": 1,
      "filterable": 0,
      "jar": "https://d.kstore.space/download/5376/jar/Hk.jar",
      "ext": "http://127.0.0.1:9978/file/TVBox/jar/alitoken.txt"
    },
    {
      "key": "说明",
      "name": "公众号：云星日记",
      "type": 3,
      "api": "360",
      "searchable": 1,
      "quickSearch": 1,
      "filterable": 1
    },
    {
      "key": "说明2",
      "name": "提供免费维护",
      "type": 3,
      "api": "360",
      "searchable": 1,
      "quickSearch": 1,
      "filterable": 1
    }
  ],
  "parses": [
    {
      "name": "解析聚合",
      "type": 3,
      "url": "Demo"
    },
    {
      "name": "Json并发",
      "type": 2,
      "url": "Parallel"
    },
    {
      "name": "Json轮询",
      "type": 2,
      "url": "Sequence"
    },
    {
      "name": "全解",
      "type": 1,
      "url": "http://119.91.123.253:2345/Api/yun.php?url=",
      "ext": {
        "flag": [
          "360",
          "qq",
          "腾讯",
          "企鹅",
          "IQiYi",
          "qiyi",
          "爱奇艺",
          "奇艺",
          "youku",
          "YouKu",
          "优酷",
          "sohu",
          "SoHu",
          "搜狐",
          "letv",
          "LeShi",
          "乐视",
          "imgo",
          "mgtv",
          "MangGuo",
          "芒果",
          "SLYS4k",
          "BYGA",
          "luanzi",
          "AliS",
          "dxzy",
          "bilibili",
          "QEYSS",
          "xigua",
          "西瓜视频",
          "腾讯视频",
          "奇艺视频",
          "优酷视频",
          "芒果视频",
          "乐视视频"
        ],
        "header": {
          "User-Agent": "Dart/2.18 (dart:io)"
        }
      }
    },
    {
      "name": "稻香",
      "type": 0,
      "url": "https://jx.xmflv.com/?url=",
      "ext": {
        "flag": [
          "mgtv",
          "qiyi",
          "imgo",
          "爱奇艺",
          "奇艺",
          "qq",
          "腾讯",
          "youku",
          "优酷",
          "pptv",
          "PPTV",
          "letv",
          "乐视",
          "leshi",
          "bilibili",
          "哔哩哔哩",
          "哔哩",
          "mgtv",
          "芒果",
          "芒果"
        ],
        "header": {
          "User-Agent": "okhttp/3.12.0"
        }
      }
    },
    {
      "name": "飞云",
      "type": 1,
      "url": "http://122.228.84.103:7777/api/?key=EauMlPIBC3spoYGaOB&url=",
      "ext": {
        "flag": [
          "FYNB",
          "NBY",
          "qiyi",
          "imgo",
          "爱奇艺",
          "奇艺",
          "qq",
          "腾讯",
          "youku",
          "优酷",
          "pptv",
          "PPTV",
          "letv",
          "乐视",
          "leshi",
          "bilibili",
          "哔哩哔哩",
          "哔哩",
          "mgtv",
          "芒果"
        ],
        "header": {
          "User-Agent": "okhttp/4.1.0"
        }
      }
    },
    {
      "name": "亮亮",
      "type": 1,
      "url": "http://xiutan.shiyifacai.com/json/qingfeng.php?url=",
      "ext": {
        "flag": [
          "seven"
        ],
        "header": {
          "User-Agent": "Lavf/58.12.100"
        }
      }
    },
    {
      "name": "YuMi-vip",
      "type": 0,
      "url": "https://jx.xmflv.com/?url=",
      "ext": {
        "flag": [
          "爱奇艺",
          "奇艺",
          "qq",
          "腾讯",
          "youku",
          "优酷",
          "pptv",
          "PPTV",
          "letv",
          "乐视",
          "leshi",
          "bilibili",
          "哔哩哔哩",
          "哔哩",
          "mgtv",
          "芒果",
          "芒果"
        ],
        "header": {
          "User-Agent": "Mozilla/5.0 (Linux; Android 6.0; Nexus 5 Build/MRA58N) AppleWebKit/537.36 (KHTML, like Gecko) Chrome/118.0.0.0 Mobile Safari/537.36"
        }
      }
    },
    {
      "name": "xmflv",
      "type": 0,
      "url": "https://jx.xmflv.com/?url=",
      "ext": {
        "flag": [
          "qq",
          "腾讯",
          "qiyi",
          "爱奇艺",
          "奇艺",
          "youku",
          "优酷",
          "mgtv",
          "芒果",
          "letv",
          "乐视",
          "pptv",
          "PPTV",
          "sohu",
          "bilibili",
          "哔哩哔哩",
          "哔哩"
        ]
      }
    },
    {
      "name": "云播",
      "type": 0,
      "url": "https://vip.lianfaka.com/vip/?url=",
      "ext": {
        "flag": [
          "qq",
          "腾讯",
          "qiyi",
          "爱奇艺",
          "奇艺",
          "youku",
          "优酷",
          "mgtv",
          "芒果",
          "letv",
          "乐视",
          "pptv",
          "PPTV",
          "sohu",
          "bilibili",
          "哔哩哔哩",
          "哔哩"
        ],
        "header": {
          "User-Agent": "okhttp/4.1.0"
        }
      }
    },
    {
      "name": "剖云",
      "type": 0,
      "url": "https://www.pouyun.com/?url=",
      "ext": {
        "flag": [
          "qq",
          "腾讯",
          "qiyi",
          "爱奇艺",
          "奇艺",
          "youku",
          "优酷",
          "mgtv",
          "芒果",
          "letv",
          "乐视",
          "pptv",
          "PPTV",
          "sohu",
          "bilibili",
          "哔哩哔哩",
          "哔哩"
        ]
      }
    }
  ],
  "flags": [
    "youku",
    "qq",
    "iqiyi",
    "qiyi",
    "letv",
    "sohu",
    "tudou",
    "pptv",
    "mgtv",
    "wasu",
    "bilibili",
    "renrenmi"
  ],
  "ijk": [
    {
      "group": "软解码",
      "options": [
        {
          "category": 4,
          "name": "opensles",
          "value": "0"
        },
        {
          "category": 4,
          "name": "overlay-format",
          "value": "842225234"
        },
        {
          "category": 4,
          "name": "framedrop",
          "value": "1"
        },
        {
          "category": 4,
          "name": "soundtouch",
          "value": "1"
        },
        {
          "category": 4,
          "name": "start-on-prepared",
          "value": "1"
        },
        {
          "category": 1,
          "name": "http-detect-range-support",
          "value": "0"
        },
        {
          "category": 1,
          "name": "fflags",
          "value": "fastseek"
        },
        {
          "category": 2,
          "name": "skip_loop_filter",
          "value": "48"
        },
        {
          "category": 4,
          "name": "reconnect",
          "value": "1"
        },
        {
          "category": 4,
          "name": "enable-accurate-seek",
          "value": "0"
        },
        {
          "category": 4,
          "name": "mediacodec",
          "value": "0"
        },
        {
          "category": 4,
          "name": "mediacodec-auto-rotate",
          "value": "0"
        },
        {
          "category": 4,
          "name": "mediacodec-handle-resolution-change",
          "value": "0"
        },
        {
          "category": 4,
          "name": "mediacodec-hevc",
          "value": "0"
        },
        {
          "category": 1,
          "name": "dns_cache_timeout",
          "value": "600000000"
        }
      ]
    },
    {
      "group": "硬解码",
      "options": [
        {
          "category": 4,
          "name": "opensles",
          "value": "0"
        },
        {
          "category": 4,
          "name": "overlay-format",
          "value": "842225234"
        },
        {
          "category": 4,
          "name": "framedrop",
          "value": "1"
        },
        {
          "category": 4,
          "name": "soundtouch",
          "value": "1"
        },
        {
          "category": 4,
          "name": "start-on-prepared",
          "value": "1"
        },
        {
          "category": 1,
          "name": "http-detect-range-support",
          "value": "0"
        },
        {
          "category": 1,
          "name": "fflags",
          "value": "fastseek"
        },
        {
          "category": 2,
          "name": "skip_loop_filter",
          "value": "48"
        },
        {
          "category": 4,
          "name": "reconnect",
          "value": "1"
        },
        {
          "category": 4,
          "name": "enable-accurate-seek",
          "value": "0"
        },
        {
          "category": 4,
          "name": "mediacodec",
          "value": "1"
        },
        {
          "category": 4,
          "name": "mediacodec-auto-rotate",
          "value": "1"
        },
        {
          "category": 4,
          "name": "mediacodec-handle-resolution-change",
          "value": "1"
        },
        {
          "category": 4,
          "name": "mediacodec-hevc",
          "value": "1"
        },
        {
          "category": 1,
          "name": "dns_cache_timeout",
          "value": "600000000"
        }
      ]
    }
  ],
  "lives": [
    {
      "name": "Ipv4",
      "type": 0,
      "url": "http://itvbox.cc/tvbox/zhibo/live.txt",
      "playerType": 1,
      "ua": "okhttp/3.15",
      "epg": "http://epg.112114.xyz/?ch={name}&date={date}",
      "logo": "https://epg.112114.xyz/logo/{name}.png"
    },
    {
      "name": "ipv6_1",
      "type": 0,
      "url": "https://my5353.com/v6zby",
      "playerType": 1,
      "ua": "okhttp/3.15",
      "epg": "http://epg.112114.xyz/?ch={name}&date={date}",
      "logo": "https://epg.112114.xyz/logo/{name}.png"
    },
    {
      "name": "ipv6_2",
      "type": 0,
      "url": "https://mirror.ghproxy.com/https://raw.githubusercontent.com/YueChan/Live/main/IPTV.m3u",
      "playerType": 1,
      "ua": "okhttp/3.15",
      "epg": "http://epg.112114.xyz/?ch={name}&date={date}",
      "logo": "https://epg.112114.xyz/logo/{name}.png"
    },
    {
      "name": "ipv6_3",
      "type": 0,
      "url": "https://live.fanmingming.com/tv/m3u/ipv6.m3u",
      "playerType": 1,
      "ua": "okhttp/3.15",
      "epg": "http://epg.112114.xyz/?ch={name}&date={date}",
      "logo": "https://epg.112114.xyz/logo/{name}.png"
    }
  ],
  "doh": [
    {
      "name": "Google",
      "url": "https://dns.google/dns-query",
      "ips": [
        "8.8.4.4",
        "8.8.8.8"
      ]
    },
    {
      "name": "Cloudflare",
      "url": "https://cloudflare-dns.com/dns-query",
      "ips": [
        "1.1.1.1",
        "1.0.0.1",
        "2606:4700:4700::1111",
        "2606:4700:4700::1001"
      ]
    },
    {
      "name": "AdGuard",
      "url": "https://dns.adguard.com/dns-query",
      "ips": [
        "94.140.14.140",
        "94.140.14.141"
      ]
    },
    {
      "name": "DNSWatch",
      "url": "https://resolver2.dns.watch/dns-query",
      "ips": [
        "84.200.69.80",
        "84.200.70.40"
      ]
    },
    {
      "name": "Quad9",
      "url": "https://dns.quad9.net/dns-quer",
      "ips": [
        "9.9.9.9",
        "149.112.112.112"
      ]
    }
  ],
  "ads": [
    "mimg.0c1q0l.cn",
    "www.googletagmanager.com",
    "www.google-analytics.com",
    "mc.usihnbcq.cn",
    "mg.g1mm3d.cn",
    "mscs.svaeuzh.cn",
    "cnzz.hhttm.top",
    "tp.vinuxhome.com",
    "cnzz.mmstat.com",
    "www.baihuillq.com",
    "s23.cnzz.com",
    "z3.cnzz.com",
    "c.cnzz.com",
    "stj.v1vo.top",
    "z12.cnzz.com",
    "img.mosflower.cn",
    "tips.gamevvip.com",
    "ehwe.yhdtns.com",
    "xdn.cqqc3.com",
    "www.jixunkyy.cn",
    "sp.chemacid.cn",
    "hm.baidu.com",
    "s9.cnzz.com",
    "z6.cnzz.com",
    "um.cavuc.com",
    "mav.mavuz.com",
    "wofwk.aoidf3.com",
    "z5.cnzz.com",
    "xc.hubeijieshikj.cn",
    "tj.tianwenhu.com",
    "xg.gars57.cn",
    "k.jinxiuzhilv.com",
    "cdn.bootcss.com",
    "ppl.xunzhuo123.com",
    "xomk.jiangjunmh.top",
    "img.xunzhuo123.com",
    "z1.cnzz.com",
    "s13.cnzz.com",
    "xg.huataisangao.cn",
    "z7.cnzz.com",
    "xg.huataisangao.cn",
    "z2.cnzz.com",
    "s96.cnzz.com",
    "q11.cnzz.com",
    "thy.dacedsfa.cn",
    "xg.whsbpw.cn",
    "s19.cnzz.com",
    "z8.cnzz.com",
    "s4.cnzz.com",
    "f5w.as12df.top",
    "ae01.alicdn.com",
    "www.92424.cn",
    "k.wudejia.com",
    "vivovip.mmszxc.top",
    "qiu.xixiqiu.com",
    "cdnjs.hnfenxun.com",
    "cms.qdwght.com"
  ]
}